• sRtr
…
Built-in spatial datasets

The package includes state-level UNOS/OPTN region geometries and
transplant center point locations.

UNOS_regions_sf
#> Simple feature collection with 49 features and 2 fields
#> Geometry type: MULTIPOLYGON
#> Dimension:     XY
#> Bounding box:  xmin: -2356114 ymin: 268660.9 xmax: 2258154 ymax: 3165722
#> Projected CRS: NAD83 / Conus Albers
#> # A tibble: 49 × 3
#>    Region   State                                                       geometry
#>  * <chr>    <chr>                                             <MULTIPOLYGON [m]>
#>  1 Region 1 Connecticut          (((1841099 2228944, 1855809 2243706, 1848123 2…
#>  2 Region 1 Maine                (((2138226 2628218, 2141401 2631393, 2145105 2…
#>  3 Region 1 Massachusetts        (((2111139 2321239, 2117588 2323418, 2126584 2…
#>  4 Region 1 New Hampshire        (((1885488 2441514, 1886564 2445437, 1884951 2…
#>  5 Region 1 Rhode Island         (((2006463 2276322, 2007521 2284789, 2011226 2…
#>  6 Region 2 Delaware             (((1705278 2038007, 1706137 2042296, 1708323 2…
#>  7 Region 2 District of Columbia (((1610777 1928086, 1616046 1936147, 1619950 1…
#>  8 Region 2 Maryland             (((1722285 1847165, 1725330 1849095, 1728392 1…
#>  9 Region 2 New Jersey           (((1725281 2031759, 1726883 2034105, 1728061 2…
#> 10 Region 2 Pennsylvania         (((1287712 2093650, 1286266 2102574, 1283800 2…
#> # ℹ 39 more rows
transplant_centers_sf
#> Simple feature collection with 254 features and 2 fields
#> Geometry type: POINT
#> Dimension:     XY
#> Bounding box:  xmin: -6126888 ymin: 19010.26 xmax: 3229480 ymax: 3014265
#> Projected CRS: NAD83 / Conus Albers
#> # A tibble: 254 × 3
#>    OTCName                              OTCCode            geometry
#>  * <chr>                                <chr>           <POINT [m]>
#>  1 MUSC Children's Hospital             SCCH      (1487799 1205313)
#>  2 Medical University of South Carolina SCMU      (1487787 1205334)
#>  3 Avera McKennan Hospital              SDMK    (-57359.26 2282511)
#>  4 Sanford Health/USD Medical Center    SDSV    (-59647.51 2282589)
#>  5 Baptist Memorial Hospital            TNBM     (554364.2 1359349)
#>  6 Erlanger Medical Center              TNEM     (966708.3 1386691)
#>  7 Le Bonheur Children's Medical Center TNLB     (538749.4 1359675)
#>  8 Methodist University Hospital        TNMH     (540047.1 1359139)
#>  9 Centennial Medical Center            TNPV       (818293 1495462)
#> 10 Saint Thomas Hospital                TNST     (815399.8 1492365)
#> # ℹ 244 more rows
…
